{
  "posts": [
    { "id": 1, "title": "Post 111" },
    { "id": 2, "title": "Post 2" },
    { "id": 3, "title": "Post 3" }
  ],
  "comments": [
    { "id": 1, "body": "some comment", "postId": 1 },
    { "id": 2, "body": "some comment", "postId": 1 }
  ],
  "profile": {
    "name": "typicode"
  },
  "Authors": [{
  "page": "1",
  "per_page": 10,
  "total": 15,
  "total_pages": 2,
  "data": [
    {
      "id": 1,
      "username": "epaga",
      "about": "Java developer / team leader at inetsoftware.de by day<p>iOS developer by night<p>http://www.mindscopeapp.com<p>http://inflightassistant.info<p>http://appstore.com/johngoering<p>[ my public key: https://keybase.io/johngoering; my proof: https://keybase.io/johngoering/sigs/I1UIk7t3PjfB5v2GI-fhiOMvdkzn370_Z2iU5GitXa0 ]<p>hnchat:oYwa7PJ4Yaf1Vw9Om4ju",
      "submitted": 654,
      "updated_at": "2019-08-29T13:45:12.000Z",
      "submission_count": 197,
      "comment_count": 439,
      "created_at": 1301039509
    },
    {
      "id": 2,
      "username": "patricktomas",
      "about": "[ my public key: https://keybase.io/ptrcktms; my proof: https://keybase.io/ptrcktms/sigs/Z_woLEAc6ZrVtIAdZbAyp23r7vsL_clxNE3RE8DEmGQ ]",
      "submitted": 9,
      "updated_at": "2019-01-29T22:47:01.000Z",
      "submission_count": 6,
      "comment_count": 3,
      "created_at": 1255392958
    },
    {
      "id": 3,
      "username": "saintamh",
      "about": "",
      "submitted": 8,
      "updated_at": "2019-08-21T10:04:13.000Z",
      "submission_count": 4,
      "comment_count": 4,
      "created_at": 1267029423
    },
    {
      "id": 4,
      "username": "panny",
      "about": "",
      "submitted": 71,
      "updated_at": "2019-09-06T11:13:29.000Z",
      "submission_count": 51,
      "comment_count": 15,
      "created_at": 1510174513
    },
    {
      "id": 5,
      "username": "olalonde",
      "about": "olalonde@gmail.com<p>http://www.github.com/olalonde<p>CTO/Co-Founder @ https://binded.com",
      "submitted": 4561,
      "updated_at": "2019-09-08T09:26:52.000Z",
      "submission_count": 1032,
      "comment_count": 3045,
      "created_at": 1261051630
    },
    {
      "id": 6,
      "username": "WisNorCan",
      "about": "bayesian optimist",
      "submitted": 177,
      "updated_at": "2019-07-26T01:40:10.000Z",
      "submission_count": 42,
      "comment_count": 107,
      "created_at": 1497196382
    },
    {
      "id": 7,
      "username": "dmmalam",
      "about": "Cofounder OctaveWealth (YCS12)",
      "submitted": 765,
      "updated_at": "2019-08-12T21:38:21.000Z",
      "submission_count": 645,
      "comment_count": 115,
      "created_at": 1312041112
    },
    {
      "id": 8,
      "username": "replicatorblog",
      "about": "https://twitter.com/josephflaherty<p>Formerly Wired:<p>https://www.wired.com/author/joseph-flaherty/<p>Now covering startups for Founder Collective, a fantastic VC firm:<p>http://www.foundercollective.com/",
      "submitted": 1441,
      "updated_at": "2019-09-06T02:06:35.000Z",
      "submission_count": 550,
      "comment_count": 790,
      "created_at": 1224455310
    },
    {
      "id": 9,
      "username": "eightturn",
      "about": "twitter: @searchbound",
      "submitted": 84,
      "updated_at": "2019-08-10T21:33:15.000Z",
      "submission_count": 7,
      "comment_count": 75,
      "created_at": 1405978844
    },
    {
      "id": 10,
      "username": "vladikoff",
      "about": "[ my public key: https://keybase.io/vladikoff; my proof: https://keybase.io/vladikoff/sigs/jxMsGDORM-qiAf0bQy91Uw4RYpHNeQa1bZD3WFdIZWo ]",
      "submitted": 65,
      "updated_at": "2019-05-10T22:04:36.000Z",
      "submission_count": 15,
      "comment_count": 50,
      "created_at": 1298054029
    }
  ]
},{
  "page": "2",
  "per_page": 10,
  "total": 15,
  "total_pages": 2,
  "data": [
    {
      "id": 11,
      "username": "mpweiher",
      "about": "http://blog.metaobject.com/<p>http://www.metaobject.com/<p>http://objective.st/",
      "submitted": 5967,
      "updated_at": "2019-09-07T19:35:03.000Z",
      "submission_count": 3342,
      "comment_count": 2577,
      "created_at": 1333104319
    },
    {
      "id": 12,
      "username": "coloneltcb",
      "about": "I work at Twilio, with Jol Franusic. Comments are my own.<p>[ my public key: https://keybase.io/selviano; my proof: https://keybase.io/selviano/sigs/fxZxeSakx-aPR2d0iICZU9FpHnDqPDW0Kz4s9OkrGS0 ]",
      "submitted": 2249,
      "updated_at": "2019-08-31T20:31:24.000Z",
      "submission_count": 2137,
      "comment_count": 88,
      "created_at": 1205248131
    },
    {
      "id": 13,
      "username": "guelo",
      "about": "",
      "submitted": 4996,
      "updated_at": "2019-09-07T13:09:59.000Z",
      "submission_count": 72,
      "comment_count": 4595,
      "created_at": 1247879051
    },
    {
      "id": 14,
      "username": "frederfred",
      "about": "web developer",
      "submitted": 4,
      "updated_at": "2018-03-22T13:44:20.000Z",
      "submission_count": 3,
      "comment_count": 1,
      "created_at": 1361951997
    },
    {
      "id": 15,
      "username": "pkiller",
      "about": "",
      "submitted": 32,
      "updated_at": "2019-04-07T21:56:40.000Z",
      "submission_count": 1,
      "comment_count": 31,
      "created_at": 1539079554
    }
  ]
}],
"IOT":[
  {
    "page": "1",
    "per_page": 10,
    "total": 30,
    "total_pages": 2,
    "data": [
      {
        "id": 30,
        "timestamp": 1550541691500,
        "status": "STOPPED",
        "operatingParams": {
          "rotorSpeed": 0,
          "slack": 0,
          "rootThreshold": 48.97
        },
        "asset": {
          "id": 7,
          "alias": "Counter Blades"
        }
      },
      {
        "id": 31,
        "timestamp": 1561114683132,
        "status": "STOPPED",
        "operatingParams": {
          "rotorSpeed": 0,
          "slack": 0,
          "rootThreshold": 96.38
        },
        "asset": {
          "id": 6,
          "alias": "Penstock Guage"
        }
      },
      {
        "id": 33,
        "timestamp": 1548326871932,
        "status": "STOPPED",
        "operatingParams": {
          "rotorSpeed": 0,
          "slack": 0,
          "rootThreshold": 96.22
        },
        "asset": {
          "id": 1,
          "alias": "Axle Motor"
        },
        "parent": null
      },
      {
        "id": 34,
        "timestamp": 1564555119341,
        "status": "STOPPED",
        "operatingParams": {
          "rotorSpeed": 0,
          "slack": 0,
          "rootThreshold": 30.26
        },
        "asset": {
          "id": 4,
          "alias": "Secondary Rotor"
        },
        "parent": {
          "id": 2,
          "alias": "Main Rotor Shaft"
        }
      },
      {
        "id": 36,
        "timestamp": 1552381556864,
        "status": "STOPPED",
        "operatingParams": {
          "rotorSpeed": 0,
          "slack": 0,
          "rootThreshold": 45
        },
        "asset": {
          "id": 0,
          "alias": "Primary Rotor"
        },
        "parent": {
          "id": 2,
          "alias": "Main Rotor Shaft"
        }
      },
      {
        "id": 39,
        "timestamp": 1564946177173,
        "status": "STOPPED",
        "operatingParams": {
          "rotorSpeed": 0,
          "slack": 0,
          "rootThreshold": 24.96
        },
        "asset": {
          "id": 4,
          "alias": "Secondary Rotor"
        },
        "parent": {
          "id": 2,
          "alias": "Main Rotor Shaft"
        }
      },
      {
        "id": 41,
        "timestamp": 1549388074620,
        "status": "STOPPED",
        "operatingParams": {
          "rotorSpeed": 0,
          "slack": 0,
          "rootThreshold": 93.6
        },
        "asset": {
          "id": 2,
          "alias": "Main Rotor Shaft"
        }
      },
      {
        "id": 43,
        "timestamp": 1556642674532,
        "status": "STOPPED",
        "operatingParams": {
          "rotorSpeed": 0,
          "slack": 0,
          "rootThreshold": 47.02
        },
        "asset": {
          "id": 3,
          "alias": "Secondary Rotor Shaft"
        },
        "parent": {
          "id": 7,
          "alias": "Counter Blades"
        }
      },
      {
        "id": 50,
        "timestamp": 1559597269563,
        "status": "STOPPED",
        "operatingParams": {
          "rotorSpeed": 0,
          "slack": 0,
          "rootThreshold": 86.07
        },
        "asset": {
          "id": 2,
          "alias": "Main Rotor Shaft"
        }
      },
      {
        "id": 52,
        "timestamp": 1555273747500,
        "status": "STOPPED",
        "operatingParams": {
          "rotorSpeed": 0,
          "slack": 0,
          "rootThreshold": 79.73
        },
        "asset": {
          "id": 4,
          "alias": "Secondary Rotor"
        },
        "parent": {
          "id": 2,
          "alias": "Main Rotor Shaft"
        }
      }
    ]
  },
  {
    "page": "2",
    "per_page": 10,
    "total": 35,
    "total_pages": 2,
    "data": [
      {
        "id": 42,
        "timestamp": 1565692775077,
        "status": "RUNNING",
        "operatingParams": {
          "rotorSpeed": 3036,
          "slack": 78.6,
          "rootThreshold": 0
        },
        "asset": {
          "id": 0,
          "alias": "Primary Rotor"
        },
        "parent": {
          "id": 2,
          "alias": "Main Rotor Shaft"
        }
      },
      {
        "id": 46,
        "timestamp": 1552562195715,
        "status": "RUNNING",
        "operatingParams": {
          "rotorSpeed": 2281,
          "slack": 55.14,
          "rootThreshold": 0
        },
        "asset": {
          "id": 7,
          "alias": "Counter Blades"
        }
      },
      {
        "id": 47,
        "timestamp": 1547224303019,
        "status": "RUNNING",
        "operatingParams": {
          "rotorSpeed": 2044,
          "slack": 53.54,
          "rootThreshold": 0
        },
        "asset": {
          "id": 7,
          "alias": "Counter Blades"
        }
      },
      {
        "id": 49,
        "timestamp": 1560064864330,
        "status": "RUNNING",
        "operatingParams": {
          "rotorSpeed": 4721,
          "slack": 90.46,
          "rootThreshold": 0
        },
        "asset": {
          "id": 3,
          "alias": "Secondary Rotor Shaft"
        },
        "parent": {
          "id": 7,
          "alias": "Counter Blades"
        }
      },
      {
        "id": 51,
        "timestamp": 1554411734690,
        "status": "RUNNING",
        "operatingParams": {
          "rotorSpeed": 2957,
          "slack": 87.8,
          "rootThreshold": 0
        },
        "asset": {
          "id": 4,
          "alias": "Secondary Rotor"
        },
        "parent": {
          "id": 2,
          "alias": "Main Rotor Shaft"
        }
      },
      {
        "id": 54,
        "timestamp": 1553587216516,
        "status": "RUNNING",
        "operatingParams": {
          "rotorSpeed": 3226,
          "slack": 84.66,
          "rootThreshold": 0
        },
        "asset": {
          "id": 6,
          "alias": "Penstock Guage"
        }
      },
      {
        "id": 57,
        "timestamp": 1555874682656,
        "status": "RUNNING",
        "operatingParams": {
          "rotorSpeed": 1585,
          "slack": 53.07,
          "rootThreshold": 0
        },
        "asset": {
          "id": 1,
          "alias": "Axle Motor"
        },
        "parent": null
      },
      {
        "id": 59,
        "timestamp": 1553671973838,
        "status": "RUNNING",
        "operatingParams": {
          "rotorSpeed": 4238,
          "slack": 33.08,
          "rootThreshold": 0
        },
        "asset": {
          "id": 1,
          "alias": "Axle Motor"
        },
        "parent": null
      },
      {
        "id": 60,
        "timestamp": 1566828588900,
        "status": "RUNNING",
        "operatingParams": {
          "rotorSpeed": 4686,
          "slack": 19.24,
          "rootThreshold": 0
        },
        "asset": {
          "id": 2,
          "alias": "Main Rotor Shaft"
        }
      },
      {
        "id": 62,
        "timestamp": 1563263018996,
        "status": "RUNNING",
        "operatingParams": {
          "rotorSpeed": 4005,
          "slack": 33.92,
          "rootThreshold": 0
        },
        "asset": {
          "id": 2,
          "alias": "Main Rotor Shaft"
        }
      }
    ]
  }
]
}
